%YAML 1.1
%TAG !u! tag:unity3d.com,2011:
--- !u!74 &7400000
AnimationClip:
  m_ObjectHideFlags: 0
  m_CorrespondingSourceObject: {fileID: 0}
  m_PrefabInstance: {fileID: 0}
  m_PrefabAsset: {fileID: 0}
  m_Name: Wolf2Die
  serializedVersion: 6
  m_Legacy: 0
  m_Compressed: 0
  m_UseHighQualityCurve: 1
  m_RotationCurves: []
  m_CompressedRotationCurves: []
  m_EulerCurves: []
  m_PositionCurves: []
  m_ScaleCurves: []
  m_FloatCurves: []
  m_PPtrCurves:
  - curve:
    - time: 0
      value: {fileID: 21300000, guid: d07ea19b802483b45b4f048ab5c0c03c, type: 3}
    - time: 0.083333336
      value: {fileID: 21300000, guid: a7df3982c4db90445b5637d447dd28fe, type: 3}
    - time: 0.16666667
      value: {fileID: 21300000, guid: 4163170aa36c7d2489f2a44489567e8a, type: 3}
    - time: 0.25
      value: {fileID: 21300000, guid: 681804f7a31b7bd428885e019039164d, type: 3}
    - time: 0.33333334
      value: {fileID: 21300000, guid: e27b60ab70d9dc04b964a1a798701069, type: 3}
    - time: 0.41666666
      value: {fileID: 21300000, guid: a46a683c54784834c93836e2a42acb72, type: 3}
    - time: 0.5
      value: {fileID: 21300000, guid: ce91745ed3fcf9f4886ecd0d9ab5689d, type: 3}
    - time: 0.5833333
      value: {fileID: 21300000, guid: f17da859254f0d447bd7745601555fcf, type: 3}
    attribute: m_Sprite
    path: 
    classID: 212
    script: {fileID: 0}
  m_SampleRate: 12
  m_WrapMode: 0
  m_Bounds:
    m_Center: {x: 0, y: 0, z: 0}
    m_Extent: {x: 0, y: 0, z: 0}
  m_ClipBindingConstant:
    genericBindings:
    - serializedVersion: 2
      path: 0
      attribute: 0
      script: {fileID: 0}
      typeID: 212
      customType: 23
      isPPtrCurve: 1
    pptrCurveMapping:
    - {fileID: 21300000, guid: d07ea19b802483b45b4f048ab5c0c03c, type: 3}
    - {fileID: 21300000, guid: a7df3982c4db90445b5637d447dd28fe, type: 3}
    - {fileID: 21300000, guid: 4163170aa36c7d2489f2a44489567e8a, type: 3}
    - {fileID: 21300000, guid: 681804f7a31b7bd428885e019039164d, type: 3}
    - {fileID: 21300000, guid: e27b60ab70d9dc04b964a1a798701069, type: 3}
    - {fileID: 21300000, guid: a46a683c54784834c93836e2a42acb72, type: 3}
    - {fileID: 21300000, guid: ce91745ed3fcf9f4886ecd0d9ab5689d, type: 3}
    - {fileID: 21300000, guid: f17da859254f0d447bd7745601555fcf, type: 3}
  m_AnimationClipSettings:
    serializedVersion: 2
    m_AdditiveReferencePoseClip: {fileID: 0}
    m_AdditiveReferencePoseTime: 0
    m_StartTime: 0
    m_StopTime: 0.6666666
    m_OrientationOffsetY: 0
    m_Level: 0
    m_CycleOffset: 0
    m_HasAdditiveReferencePose: 0
    m_LoopTime: 0
    m_LoopBlend: 0
    m_LoopBlendOrientation: 0
    m_LoopBlendPositionY: 0
    m_LoopBlendPositionXZ: 0
    m_KeepOriginalOrientation: 0
    m_KeepOriginalPositionY: 1
    m_KeepOriginalPositionXZ: 0
    m_HeightFromFeet: 0
    m_Mirror: 0
  m_EditorCurves: []
  m_EulerEditorCurves: []
  m_HasGenericRootTransform: 0
  m_HasMotionFloatCurves: 0
  m_Events: []
